{
  "Version": "2012-10-17",
  "Statement": [
    {
      "Effect": "Allow",
      "Principal": "*",
      "Action": "s3:GetObject",
      "Resource": "arn:aws:s3:::tba-assets/*",
      "Condition": {
        "IpAddress": {"aws:SourceIp": "185.100.71.0/24"}
      }
    },
    {
      "Effect":"Allow",
      "Principal":{
        "CanonicalUser":"125ddcac8aa23a9e6a8e751f53442b6b319627838a80d77c981285a1fca70f6ee50d693154dc2a75b9f6b8815fba08db"},
      "Action":"s3:GetObject",
      "Resource":"arn:aws:s3:::tba-assets/*"
    }
  ]
}
