<?xml version="1.0" encoding="UTF-8"?>
<svg width="17px" height="20px" viewBox="0 0 17 20" version="1.1" xmlns="http://www.w3.org/2000/svg" xmlns:xlink="http://www.w3.org/1999/xlink">
    <!-- Generator: Sketch 50.2 (55047) - http://www.bohemiancoding.com/sketch -->
    <title>lock_close_round [#707] copy</title>
    <desc>Created with Sketch.</desc>
    <defs></defs>
    <g id="Page-1" stroke="none" stroke-width="1" fill="none" fill-rule="evenodd">
        <g id="Login" transform="translate(-531.000000, -563.000000)" fill="#FFFFFF">
            <g id="Username/Passwrod/LoginBtn" transform="translate(520.000000, 437.000000)">
                <path d="M25.5714286,143.000459 C25.5714286,143.552459 25.0274286,144.000459 24.3571429,144.000459 L14.6428571,144.000459 C13.9725714,144.000459 13.4285714,143.552459 13.4285714,143.000459 L13.4285714,135.000459 C13.4285714,134.448459 13.9725714,134.000459 14.6428571,134.000459 L24.3571429,134.000459 C25.0274286,134.000459 25.5714286,134.448459 25.5714286,135.000459 L25.5714286,143.000459 Z M17.0714286,130.000459 C17.0714286,128.897459 18.1606429,128.000459 19.5,128.000459 C20.8393571,128.000459 21.9285714,129.000459 21.9285714,130.000459 L21.9285714,132.000459 L17.0714286,132.000459 L17.0714286,130.000459 Z M24.3571429,132.000459 L24.3571429,130.000459 C24.3571429,127.753459 21.6116429,125.505459 18.4848571,126.095459 C16.1801429,126.530459 14.6428571,128.341459 14.6428571,130.288459 L14.6428571,132.000459 L13.4285714,132.000459 C12.0867857,132.000459 11,132.895459 11,134.000459 L11,144.000459 C11,145.105459 12.0867857,146.000459 13.4285714,146.000459 L25.5714286,146.000459 C26.9132143,146.000459 28,145.105459 28,144.000459 L28,134.000459 C28,132.895459 26.9132143,132.000459 25.5714286,132.000459 L24.3571429,132.000459 Z" id="lock_close_round-[#707]-copy"></path>
            </g>
        </g>
    </g>
</svg>